INDEX VERSION 1.131+C:\Users\sunil\eclipse-workspace\DataDrivenFramework\.metadata\.plugins\org.eclipse.jdt.core
581876364.index
2320479079.index
2739994954.index
386224573.index
778440665.index
3127200375.index
2714388626.index
3068707554.index
2989799438.index
3001834031.index
4089561661.index
2391945389.index
1097026591.index
3869086911.index
3521419418.index
3398806027.index
435976806.index
3322484370.index
848431405.index
1688355561.index
804976049.index
2040890728.index
1610383578.index
3571052772.index
475741415.index
1677895080.index
2224335065.index
2123428319.index
3148212862.index
1046558255.index
2111985030.index
4075840890.index
187704610.index
2564218679.index
3282753603.index
3001668292.index
1269509039.index
4126816253.index
1987168092.index
697820173.index
1552885063.index
2375909168.index
3449760143.index
3373106194.index
301814882.index
3713441771.index
351356012.index
1022711751.index
1697303354.index
2725020763.index
4247242343.index
3689706269.index
1050272795.index
2460688707.index
2950352089.index
980128707.index
1638157215.index
3854920331.index
2481769067.index
2697136166.index
3100296091.index
3618190161.index
1530097990.index
758059786.index
1457046317.index
1479847476.index
1072817937.index
3362575949.index
169177238.index
450794283.index
2664832487.index
2701558041.index
1197236993.index
3168646192.index
401572193.index
23588553.index
2122598293.index
311460806.index
2564492064.index
1840222141.index
2103023612.index
3250891499.index
3042214046.index
2857617100.index
3248172283.index
1116692214.index
3768703863.index
1126133750.index
764988278.index
1649079709.index
241263338.index
1202099126.index
3725140311.index
1706469684.index
120405458.index
2240997449.index
828341461.index
708405341.index
875990529.index
1332948206.index
1464491720.index
887122062.index
2054287730.index
3664797651.index
31084153.index
810997436.index
2459969073.index
415842444.index
78131588.index
784525764.index
2708884676.index
2789707191.index
1461381558.index
748745141.index
1565549800.index
2067114937.index
3885187931.index
1857391631.index
3945021516.index
2009545464.index
2505568141.index
410037442.index
1983325956.index
1064287107.index
751292358.index
3286332569.index
3229039933.index
960536528.index
1405404346.index
945382523.index
699149264.index
990227581.index
3346640803.index
3564874602.index
3128529795.index
1771624819.index
316501306.index
3335838326.index
2608201177.index
45999907.index
1012665949.index
345767116.index
315440034.index
3648709899.index
1661814913.index
2049795309.index
350201338.index
1435823123.index
2346190965.index
892643629.index
2364866067.index
2353819563.index
1912367837.index
300982242.index
